2009,950
2010,950
2011,950
2012,950
2013,950
2014,950
2015,950
2027,950
2028,950
2029,950
2030,950
2031,950
2032,950
2033,950
2034,950
2041,950
2042,950
2043,950
2044,950
2049,950
2050,950
2051,950
2052,950
2053,950
2054,950
2055,950
2056,950
2003,951
2004,951
2005,951
2006,951
2007,951
2008,951
2016,951
2017,951
2018,951
2019,951
2020,951
2021,951
2022,951
2023,951
2024,951
2025,951
2026,951
2035,951
2036,951
2037,951
2038,951
2039,951
2040,951
2045,951
2046,951
2047,951
2048,951
2001,952
2002,952
2000,953
1998,954
1999,954
1997,955
1991,956
1992,956
1993,956
1994,956
1995,956
1996,956
1987,957
1988,957
1989,957
1990,957
1965,958
1966,958
1967,958
1968,958
1969,958
1970,958
1977,958
1978,958
1979,958
1980,958
1986,958
1963,959
1964,959
1971,959
1972,959
1973,959
1974,959
1975,959
1976,959
1981,959
1982,959
1983,959
1984,959
1985,959
1861,960
1862,960
1863,960
1864,960
1865,960
1866,960
1867,960
1868,960
1869,960
1870,960
1871,960
1955,960
1956,960
1957,960
1958,960
1959,960
1960,960
1961,960
1962,960
1855,961
1856,961
1857,961
1858,961
1859,961
1860,961
1872,961
1873,961
1874,961
1875,961
1876,961
1877,961
1878,961
1879,961
1880,961
1881,961
1947,961
1948,961
1949,961
1950,961
1951,961
1952,961
1953,961
1954,961
1847,962
1848,962
1849,962
1850,962
1851,962
1852,962
1853,962
1854,962
1882,962
1883,962
1884,962
1885,962
1943,962
1944,962
1945,962
1946,962
1709,963
1710,963
1711,963
1841,963
1842,963
1843,963
1844,963
1845,963
1846,963
1886,963
1887,963
1888,963
1901,963
1902,963
1903,963
1904,963
1905,963
1906,963
1939,963
1940,963
1941,963
1942,963
1708,964
1712,964
1713,964
1714,964
1715,964
1716,964
1717,964
1718,964
1719,964
1720,964
1763,964
1764,964
1765,964
1766,964
1767,964
1768,964
1769,964
1770,964
1771,964
1840,964
1889,964
1890,964
1891,964
1892,964
1893,964
1894,964
1895,964
1896,964
1897,964
1898,964
1899,964
1900,964
1907,964
1908,964
1909,964
1910,964
1911,964
1921,964
1922,964
1923,964
1924,964
1925,964
1926,964
1937,964
1938,964
1706,965
1707,965
1721,965
1722,965
1723,965
1758,965
1759,965
1760,965
1761,965
1762,965
1772,965
1773,965
1774,965
1775,965
1776,965
1838,965
1839,965
1912,965
1913,965
1914,965
1915,965
1916,965
1917,965
1918,965
1919,965
1920,965
1927,965
1928,965
1929,965
1930,965
1931,965
1932,965
1933,965
1934,965
1935,965
1936,965
1705,966
1724,966
1725,966
1726,966
1727,966
1728,966
1729,966
1730,966
1731,966
1732,966
1733,966
1734,966
1747,966
1748,966
1749,966
1750,966
1751,966
1752,966
1753,966
1754,966
1755,966
1756,966
1757,966
1777,966
1778,966
1813,966
1814,966
1815,966
1816,966
1823,966
1824,966
1825,966
1826,966
1827,966
1836,966
1837,966
1703,967
1704,967
1735,967
1736,967
1737,967
1738,967
1739,967
1740,967
1741,967
1742,967
1743,967
1744,967
1745,967
1746,967
1779,967
1780,967
1781,967
1782,967
1799,967
1800,967
1801,967
1802,967
1803,967
1804,967
1805,967
1806,967
1807,967
1808,967
1809,967
1810,967
1811,967
1812,967
1817,967
1818,967
1819,967
1820,967
1821,967
1822,967
1828,967
1829,967
1830,967
1831,967
1832,967
1833,967
1834,967
1835,967
1697,968
1698,968
1699,968
1700,968
1701,968
1702,968
1783,968
1784,968
1785,968
1786,968
1787,968
1788,968
1789,968
1790,968
1791,968
1792,968
1793,968
1794,968
1795,968
1796,968
1797,968
1798,968
1689,969
1690,969
1691,969
1692,969
1693,969
1694,969
1695,969
1696,969
1687,970
1688,970
1681,971
1682,971
1683,971
1684,971
1685,971
1686,971
1678,972
1679,972
1680,972
1672,973
1673,973
1674,973
1675,973
1676,973
1677,973
1669,974
1670,974
1671,974
1665,975
1666,975
1667,975
1668,975
1661,976
1662,976
1663,976
1664,976
1659,977
1660,977
1613,978
1614,978
1615,978
1653,978
1654,978
1655,978
1656,978
1657,978
1658,978
1609,979
1610,979
1611,979
1612,979
1616,979
1617,979
1618,979
1619,979
1620,979
1621,979
1622,979
1623,979
1624,979
1625,979
1626,979
1627,979
1628,979
1629,979
1630,979
1642,979
1643,979
1644,979
1645,979
1646,979
1647,979
1648,979
1649,979
1650,979
1651,979
1652,979
1607,980
1608,980
1631,980
1632,980
1633,980
1634,980
1635,980
1636,980
1637,980
1638,980
1639,980
1640,980
1641,980
1605,981
1606,981
1601,982
1602,982
1603,982
1604,982
1593,983
1594,983
1595,983
1596,983
1597,983
1598,983
1599,983
1600,983
1589,984
1590,984
1591,984
1592,984
1587,985
1588,985
1585,986
1586,986
1579,987
1580,987
1581,987
1582,987
1583,987
1584,987
1575,988
1576,988
1577,988
1578,988
1574,989
1569,990
1570,990
1571,990
1572,990
1573,990
1489,991
1490,991
1491,991
1563,991
1564,991
1565,991
1566,991
1567,991
1568,991
1463,992
1464,992
1465,992
1466,992
1467,992
1468,992
1469,992
1470,992
1471,992
1472,992
1473,992
1474,992
1475,992
1476,992
1477,992
1478,992
1479,992
1480,992
1481,992
1482,992
1483,992
1484,992
1485,992
1486,992
1487,992
1488,992
1492,992
1493,992
1494,992
1495,992
1496,992
1497,992
1498,992
1499,992
1500,992
1501,992
1557,992
1558,992
1559,992
1560,992
1561,992
1562,992
1449,993
1450,993
1451,993
1452,993
1453,993
1454,993
1455,993
1459,993
1460,993
1461,993
1462,993
1502,993
1503,993
1504,993
1551,993
1552,993
1553,993
1554,993
1555,993
1556,993
1425,994
1426,994
1427,994
1428,994
1429,994
1430,994
1431,994
1441,994
1442,994
1443,994
1444,994
1445,994
1446,994
1447,994
1448,994
1456,994
1457,994
1458,994
1505,994
1506,994
1507,994
1508,994
1509,994
1510,994
1527,994
1528,994
1529,994
1530,994
1531,994
1532,994
1533,994
1534,994
1535,994
1536,994
1537,994
1538,994
1539,994
1540,994
1541,994
1542,994
1543,994
1544,994
1545,994
1546,994
1547,994
1548,994
1549,994
1550,994
1394,995
1395,995
1396,995
1397,995
1398,995
1399,995
1413,995
1414,995
1415,995
1416,995
1417,995
1418,995
1419,995
1420,995
1421,995
1422,995
1423,995
1424,995
1432,995
1433,995
1434,995
1435,995
1436,995
1437,995
1438,995
1439,995
1440,995
1511,995
1512,995
1513,995
1514,995
1515,995
1516,995
1517,995
1518,995
1519,995
1520,995
1521,995
1522,995
1523,995
1524,995
1525,995
1526,995
1390,996
1391,996
1392,996
1393,996
1400,996
1401,996
1402,996
1403,996
1404,996
1405,996
1406,996
1407,996
1408,996
1409,996
1410,996
1411,996
1412,996
1383,997
1384,997
1385,997
1386,997
1387,997
1388,997
1389,997
1381,998
1382,998
1136,999
1137,999
1138,999
1139,999
1377,999
1378,999
1379,999
1380,999
1067,1000
1068,1000
1069,1000
1070,1000
1071,1000
1072,1000
1073,1000
1074,1000
1075,1000
1076,1000
1077,1000
1081,1000
1082,1000
1083,1000
1084,1000
1131,1000
1132,1000
1133,1000
1134,1000
1135,1000
1140,1000
1141,1000
1142,1000
1143,1000
1144,1000
1145,1000
1146,1000
1375,1000
1376,1000
1021,1001
1022,1001
1023,1001
1024,1001
1025,1001
1026,1001
1027,1001
1059,1001
1060,1001
1061,1001
1062,1001
1063,1001
1064,1001
1065,1001
1066,1001
1078,1001
1079,1001
1080,1001
1085,1001
1086,1001
1087,1001
1088,1001
1089,1001
1090,1001
1091,1001
1092,1001
1093,1001
1094,1001
1095,1001
1096,1001
1097,1001
1098,1001
1099,1001
1100,1001
1101,1001
1102,1001
1103,1001
1104,1001
1127,1001
1128,1001
1129,1001
1130,1001
1147,1001
1148,1001
1149,1001
1371,1001
1372,1001
1373,1001
1374,1001
1019,1002
1020,1002
1028,1002
1029,1002
1030,1002
1031,1002
1053,1002
1054,1002
1055,1002
1056,1002
1057,1002
1058,1002
1105,1002
1106,1002
1107,1002
1108,1002
1109,1002
1110,1002
1111,1002
1112,1002
1113,1002
1121,1002
1122,1002
1123,1002
1124,1002
1125,1002
1126,1002
1150,1002
1151,1002
1152,1002
1153,1002
1154,1002
1367,1002
1368,1002
1369,1002
1370,1002
1013,1003
1014,1003
1015,1003
1016,1003
1017,1003
1018,1003
1032,1003
1033,1003
1034,1003
1035,1003
1036,1003
1037,1003
1038,1003
1039,1003
1040,1003
1041,1003
1042,1003
1043,1003
1044,1003
1045,1003
1046,1003
1047,1003
1048,1003
1049,1003
1050,1003
1051,1003
1052,1003
1114,1003
1115,1003
1116,1003
1117,1003
1118,1003
1119,1003
1120,1003
1155,1003
1156,1003
1361,1003
1362,1003
1363,1003
1364,1003
1365,1003
1366,1003
962,1004
963,1004
964,1004
965,1004
966,1004
967,1004
968,1004
969,1004
970,1004
971,1004
972,1004
973,1004
974,1004
975,1004
976,1004
977,1004
978,1004
979,1004
980,1004
981,1004
982,1004
983,1004
984,1004
985,1004
986,1004
987,1004
988,1004
1005,1004
1006,1004
1007,1004
1008,1004
1009,1004
1010,1004
1011,1004
1012,1004
1157,1004
1169,1004
1170,1004
1171,1004
1172,1004
1173,1004
1174,1004
1175,1004
1176,1004
1177,1004
1359,1004
1360,1004
955,1005
956,1005
957,1005
958,1005
959,1005
960,1005
961,1005
989,1005
990,1005
991,1005
992,1005
993,1005
994,1005
995,1005
996,1005
997,1005
998,1005
999,1005
1000,1005
1001,1005
1002,1005
1003,1005
1004,1005
1158,1005
1159,1005
1160,1005
1161,1005
1162,1005
1163,1005
1164,1005
1165,1005
1166,1005
1167,1005
1168,1005
1178,1005
1179,1005
1180,1005
1181,1005
1182,1005
1183,1005
1355,1005
1356,1005
1357,1005
1358,1005
955,1006
1184,1006
1185,1006
1186,1006
1187,1006
1188,1006
1189,1006
1190,1006
1191,1006
1192,1006
1193,1006
1211,1006
1212,1006
1213,1006
1214,1006
1215,1006
1216,1006
1217,1006
1218,1006
1219,1006
1220,1006
1221,1006
1222,1006
1223,1006
1224,1006
1225,1006
1226,1006
1227,1006
1228,1006
1229,1006
1230,1006
1231,1006
1232,1006
1233,1006
1234,1006
1235,1006
1236,1006
1347,1006
1348,1006
1349,1006
1350,1006
1351,1006
1352,1006
1353,1006
1354,1006
942,1007
943,1007
944,1007
945,1007
946,1007
947,1007
953,1007
954,1007
1194,1007
1195,1007
1196,1007
1197,1007
1198,1007
1199,1007
1200,1007
1201,1007
1202,1007
1203,1007
1204,1007
1205,1007
1206,1007
1207,1007
1208,1007
1209,1007
1210,1007
1237,1007
1238,1007
1239,1007
1240,1007
1241,1007
1313,1007
1314,1007
1315,1007
1321,1007
1322,1007
1323,1007
1324,1007
1325,1007
1326,1007
1327,1007
1328,1007
1329,1007
1330,1007
1331,1007
1332,1007
1333,1007
1334,1007
1335,1007
1336,1007
1337,1007
1338,1007
1339,1007
1340,1007
1341,1007
1342,1007
1343,1007
1344,1007
1345,1007
1346,1007
941,1008
948,1008
949,1008
950,1008
951,1008
952,1008
1242,1008
1243,1008
1244,1008
1289,1008
1290,1008
1291,1008
1307,1008
1308,1008
1309,1008
1310,1008
1311,1008
1312,1008
1316,1008
1317,1008
1318,1008
1319,1008
1320,1008
939,1009
940,1009
1245,1009
1246,1009
1247,1009
1281,1009
1282,1009
1283,1009
1284,1009
1285,1009
1286,1009
1287,1009
1288,1009
1292,1009
1293,1009
1294,1009
1295,1009
1296,1009
1297,1009
1298,1009
1299,1009
1303,1009
1304,1009
1305,1009
1306,1009
937,1010
938,1010
1248,1010
1249,1010
1250,1010
1251,1010
1252,1010
1255,1010
1256,1010
1257,1010
1258,1010
1259,1010
1260,1010
1261,1010
1262,1010
1263,1010
1264,1010
1265,1010
1266,1010
1267,1010
1268,1010
1275,1010
1276,1010
1277,1010
1278,1010
1279,1010
1280,1010
1300,1010
1301,1010
1302,1010
935,1011
936,1011
1253,1011
1254,1011
1269,1011
1270,1011
1271,1011
1272,1011
1273,1011
1274,1011
934,1012
932,1013
933,1013
930,1014
931,1014
928,1015
929,1015
926,1016
927,1016
923,1017
924,1017
925,1017
917,1018
918,1018
919,1018
920,1018
921,1018
922,1018
916,1019
914,1020
915,1020
909,1021
910,1021
911,1021
912,1021
913,1021
909,1022
909,1023
908,1024
906,1025
907,1025
905,1026
903,1027
904,1027
902,1028
901,1029
899,1030
900,1030
897,1031
898,1031
896,1032
894,1033
895,1033
893,1034
890,1035
891,1035
892,1035
890,1036
890,1037
888,1038
889,1038
886,1039
887,1039
884,1040
885,1040
883,1041
881,1042
882,1042
881,1043
881,1044
879,1045
880,1045
878,1046
877,1047
875,1048
876,1048
873,1049
874,1049
871,1050
872,1050
870,1051
869,1052
865,1053
866,1053
867,1053
868,1053
861,1054
862,1054
863,1054
864,1054
861,1055
861,1056
860,1057
859,1058
857,1059
858,1059
859,1059
855,1060
856,1060
853,1061
854,1061
851,1062
852,1062
848,1063
849,1063
850,1063
847,1064
841,1065
842,1065
843,1065
844,1065
845,1065
846,1065
837,1066
838,1066
839,1066
840,1066
836,1067
833,1068
834,1068
835,1068
829,1069
830,1069
831,1069
832,1069
827,1070
828,1070
822,1071
823,1071
824,1071
825,1071
826,1071
817,1072
818,1072
819,1072
820,1072
821,1072
815,1073
816,1073
813,1074
814,1074
803,1075
804,1075
805,1075
806,1075
807,1075
808,1075
809,1075
810,1075
811,1075
812,1075
798,1076
799,1076
800,1076
801,1076
802,1076
411,1077
797,1077
411,1078
796,1078
411,1079
789,1079
790,1079
791,1079
792,1079
793,1079
794,1079
795,1079
411,1080
785,1080
786,1080
787,1080
788,1080
412,1081
784,1081
412,1082
595,1082
782,1082
783,1082
412,1083
595,1083
779,1083
780,1083
781,1083
412,1084
595,1084
773,1084
774,1084
775,1084
776,1084
777,1084
778,1084
412,1085
595,1085
769,1085
770,1085
771,1085
772,1085
412,1086
595,1086
768,1086
412,1087
595,1087
765,1087
766,1087
767,1087
412,1088
595,1088
761,1088
762,1088
763,1088
764,1088
412,1089
595,1089
759,1089
760,1089
412,1090
593,1090
594,1090
595,1090
755,1090
756,1090
757,1090
758,1090
412,1091
591,1091
592,1091
596,1091
744,1091
745,1091
746,1091
747,1091
748,1091
749,1091
753,1091
754,1091
412,1092
589,1092
590,1092
597,1092
598,1092
743,1092
750,1092
751,1092
752,1092
412,1093
587,1093
588,1093
599,1093
600,1093
601,1093
602,1093
707,1093
708,1093
709,1093
739,1093
740,1093
741,1093
742,1093
412,1094
585,1094
586,1094
603,1094
692,1094
693,1094
694,1094
695,1094
696,1094
697,1094
698,1094
699,1094
700,1094
701,1094
702,1094
703,1094
704,1094
705,1094
706,1094
710,1094
711,1094
712,1094
731,1094
732,1094
733,1094
734,1094
735,1094
736,1094
737,1094
738,1094
411,1095
412,1095
413,1095
414,1095
581,1095
582,1095
583,1095
584,1095
604,1095
605,1095
680,1095
681,1095
682,1095
683,1095
684,1095
689,1095
690,1095
691,1095
713,1095
714,1095
715,1095
716,1095
717,1095
718,1095
719,1095
720,1095
721,1095
722,1095
723,1095
724,1095
725,1095
726,1095
727,1095
728,1095
729,1095
730,1095
409,1096
410,1096
415,1096
416,1096
478,1096
479,1096
480,1096
579,1096
580,1096
606,1096
607,1096
608,1096
677,1096
678,1096
679,1096
685,1096
686,1096
687,1096
688,1096
408,1097
417,1097
418,1097
469,1097
470,1097
471,1097
472,1097
473,1097
474,1097
475,1097
476,1097
477,1097
481,1097
482,1097
483,1097
484,1097
485,1097
486,1097
487,1097
518,1097
519,1097
520,1097
521,1097
522,1097
523,1097
524,1097
571,1097
572,1097
573,1097
574,1097
575,1097
576,1097
577,1097
578,1097
609,1097
610,1097
657,1097
658,1097
659,1097
660,1097
661,1097
673,1097
674,1097
675,1097
676,1097
407,1098
419,1098
420,1098
464,1098
465,1098
466,1098
467,1098
468,1098
488,1098
489,1098
490,1098
491,1098
492,1098
493,1098
494,1098
495,1098
496,1098
512,1098
513,1098
514,1098
515,1098
516,1098
517,1098
525,1098
526,1098
564,1098
565,1098
566,1098
567,1098
568,1098
569,1098
570,1098
611,1098
612,1098
613,1098
614,1098
615,1098
616,1098
617,1098
624,1098
625,1098
626,1098
644,1098
645,1098
646,1098
651,1098
652,1098
653,1098
654,1098
655,1098
656,1098
662,1098
663,1098
664,1098
665,1098
666,1098
667,1098
668,1098
669,1098
670,1098
671,1098
672,1098
405,1099
406,1099
421,1099
422,1099
423,1099
459,1099
460,1099
461,1099
462,1099
463,1099
497,1099
498,1099
499,1099
500,1099
501,1099
502,1099
503,1099
504,1099
505,1099
506,1099
507,1099
508,1099
509,1099
510,1099
511,1099
527,1099
528,1099
529,1099
530,1099
531,1099
532,1099
533,1099
561,1099
562,1099
563,1099
618,1099
619,1099
620,1099
621,1099
622,1099
623,1099
627,1099
628,1099
629,1099
630,1099
631,1099
632,1099
633,1099
634,1099
635,1099
636,1099
637,1099
638,1099
639,1099
640,1099
641,1099
642,1099
643,1099
647,1099
648,1099
649,1099
650,1099
404,1100
424,1100
425,1100
426,1100
427,1100
458,1100
534,1100
535,1100
536,1100
537,1100
538,1100
557,1100
558,1100
559,1100
560,1100
403,1101
428,1101
452,1101
453,1101
454,1101
455,1101
456,1101
457,1101
539,1101
540,1101
541,1101
542,1101
553,1101
554,1101
555,1101
556,1101
401,1102
402,1102
429,1102
430,1102
431,1102
432,1102
433,1102
434,1102
435,1102
436,1102
437,1102
438,1102
439,1102
440,1102
441,1102
442,1102
443,1102
444,1102
445,1102
446,1102
447,1102
448,1102
449,1102
450,1102
451,1102
543,1102
544,1102
548,1102
549,1102
550,1102
551,1102
552,1102
400,1103
545,1103
546,1103
547,1103
399,1104
398,1105
397,1106
395,1107
396,1107
394,1108
393,1109
392,1110
363,1111
364,1111
365,1111
366,1111
367,1111
368,1111
369,1111
370,1111
371,1111
372,1111
373,1111
374,1111
375,1111
376,1111
377,1111
378,1111
379,1111
380,1111
381,1111
391,1111
345,1112
346,1112
347,1112
348,1112
349,1112
350,1112
351,1112
352,1112
353,1112
354,1112
355,1112
356,1112
357,1112
358,1112
359,1112
360,1112
361,1112
362,1112
382,1112
383,1112
384,1112
390,1112
321,1113
322,1113
323,1113
324,1113
325,1113
326,1113
327,1113
328,1113
337,1113
338,1113
339,1113
340,1113
341,1113
342,1113
343,1113
344,1113
385,1113
386,1113
387,1113
388,1113
389,1113
320,1114
329,1114
330,1114
331,1114
332,1114
333,1114
334,1114
335,1114
336,1114
389,1114
315,1115
316,1115
317,1115
318,1115
319,1115
389,1115
299,1116
300,1116
301,1116
302,1116
303,1116
304,1116
305,1116
306,1116
307,1116
308,1116
309,1116
310,1116
311,1116
312,1116
313,1116
314,1116
293,1117
294,1117
295,1117
296,1117
297,1117
298,1117
176,1118
177,1118
178,1118
179,1118
180,1118
181,1118
182,1118
183,1118
184,1118
185,1118
186,1118
187,1118
188,1118
189,1118
190,1118
191,1118
265,1118
266,1118
267,1118
268,1118
269,1118
270,1118
271,1118
285,1118
286,1118
287,1118
288,1118
289,1118
290,1118
291,1118
292,1118
171,1119
172,1119
173,1119
174,1119
175,1119
192,1119
193,1119
194,1119
195,1119
196,1119
247,1119
248,1119
249,1119
250,1119
251,1119
252,1119
253,1119
254,1119
255,1119
256,1119
257,1119
258,1119
259,1119
260,1119
261,1119
262,1119
263,1119
264,1119
272,1119
273,1119
274,1119
275,1119
276,1119
277,1119
278,1119
279,1119
280,1119
281,1119
282,1119
283,1119
284,1119
165,1120
166,1120
167,1120
168,1120
169,1120
170,1120
197,1120
198,1120
199,1120
245,1120
246,1120
163,1121
164,1121
200,1121
201,1121
202,1121
203,1121
204,1121
205,1121
206,1121
241,1121
242,1121
243,1121
244,1121
162,1122
207,1122
208,1122
229,1122
230,1122
231,1122
232,1122
233,1122
234,1122
235,1122
236,1122
237,1122
238,1122
239,1122
240,1122
157,1123
158,1123
159,1123
160,1123
161,1123
209,1123
210,1123
227,1123
228,1123
156,1124
211,1124
212,1124
224,1124
225,1124
226,1124
153,1125
154,1125
155,1125
213,1125
214,1125
215,1125
222,1125
223,1125
149,1126
150,1126
151,1126
152,1126
216,1126
217,1126
220,1126
221,1126
147,1127
148,1127
218,1127
219,1127
145,1128
146,1128
218,1128
140,1129
141,1129
142,1129
143,1129
144,1129
218,1129
77,1130
78,1130
79,1130
80,1130
137,1130
138,1130
139,1130
218,1130
61,1131
62,1131
63,1131
64,1131
65,1131
66,1131
67,1131
68,1131
69,1131
70,1131
71,1131
72,1131
73,1131
74,1131
75,1131
76,1131
81,1131
82,1131
83,1131
84,1131
85,1131
86,1131
87,1131
88,1131
89,1131
90,1131
91,1131
92,1131
93,1131
94,1131
95,1131
96,1131
135,1131
136,1131
218,1131
55,1132
56,1132
57,1132
58,1132
59,1132
60,1132
97,1132
98,1132
99,1132
100,1132
101,1132
102,1132
103,1132
104,1132
105,1132
106,1132
107,1132
108,1132
109,1132
127,1132
128,1132
129,1132
130,1132
131,1132
132,1132
133,1132
134,1132
218,1132
51,1133
52,1133
53,1133
54,1133
110,1133
111,1133
112,1133
113,1133
114,1133
115,1133
116,1133
117,1133
118,1133
119,1133
120,1133
121,1133
122,1133
123,1133
124,1133
125,1133
126,1133
218,1133
45,1134
46,1134
47,1134
48,1134
49,1134
50,1134
218,1134
33,1135
34,1135
35,1135
36,1135
37,1135
38,1135
39,1135
40,1135
41,1135
42,1135
43,1135
44,1135
218,1135
20,1136
21,1136
22,1136
23,1136
24,1136
25,1136
26,1136
27,1136
28,1136
29,1136
30,1136
31,1136
32,1136
218,1136
218,1137
218,1138
219,1139
219,1140
219,1141
220,1142
221,1143
221,1144
221,1145
222,1146
223,1147
223,1148
223,1149
223,1150
223,1151
223,1152
223,1153
223,1154
224,1154
225,1155
226,1156
227,1156
227,1157
227,1158
227,1159
227,1160
227,1161
228,1162
229,1163
230,1164
230,1165
230,1166
230,1167
230,1168
230,1169
231,1169
232,1170
233,1171
234,1172
235,1173
236,1173
237,1173
237,1174
237,1175
237,1176
238,1176
239,1176
237,1177
238,1177
239,1177
237,1178
238,1178
239,1178
239,1179
240,1180
241,1181
242,1182
243,1183
244,1184
244,1185
245,1185
246,1185
247,1186
248,1187
249,1188
250,1189
251,1189
252,1189
252,1190
252,1191
253,1192
254,1193
255,1194
256,1195
257,1196
258,1197
258,1198
259,1199
259,1200
259,1201
260,1201
261,1202
261,1203
262,1204
262,1205
262,1206
263,1206
264,1206
265,1207
266,1208
267,1208
268,1209
269,1209
270,1209
271,1209
271,1210
271,1211
271,1212
272,1213
273,1214
274,1215
274,1216
275,1217
276,1217
277,1218
278,1218
278,1219
278,1220
278,1221
278,1222
279,1222
280,1222
281,1223
282,1224
283,1225
284,1226
285,1227
286,1228
287,1229
287,1230
288,1230
289,1230
290,1231
291,1232
292,1232
293,1232
294,1233
295,1234
296,1234
297,1235
298,1236
299,1237
300,1238
301,1238
302,1238
303,1239
304,1239
305,1240
306,1240
307,1241
308,1242
309,1242
310,1243
311,1244
312,1245
313,1246
314,1246
315,1246
316,1246
317,1246
318,1246
318,1247
319,1248
320,1249
321,1250
322,1250
323,1250
323,1251
324,1252
325,1253
326,1254
327,1255
328,1256
329,1256
330,1257
331,1258
332,1259
333,1260
334,1260
335,1261
336,1262
337,1263
338,1264
339,1265
340,1265
341,1266
342,1266
343,1267
344,1267
345,1268
346,1269
346,1270
347,1270
348,1270
349,1270
350,1271
351,1271
352,1272
353,1272
354,1272
355,1272
356,1273
357,1274
358,1274
359,1274
360,1274
361,1275
362,1276
363,1276
364,1277
365,1278
366,1279
367,1279
368,1279
369,1280
370,1280
371,1281
372,1282
373,1282
374,1283
375,1283
376,1283
377,1283
378,1284
379,1285
380,1285
381,1285
382,1285
383,1285
384,1286
385,1287
386,1287
387,1288
388,1289
389,1290
390,1291
391,1292
392,1292
393,1293
394,1294
395,1294
396,1295
396,1296
396,1297
397,1297
398,1297
399,1297
400,1297
401,1297
402,1297
403,1298
404,1299
405,1300
406,1301
407,1302
408,1302
409,1302
410,1303
411,1304
412,1304
413,1305
414,1305
415,1305
416,1306
417,1306
418,1306
419,1306
420,1307
421,1308
422,1309
423,1309
424,1310
425,1310
426,1311
427,1311
428,1312
429,1312
430,1312
431,1312
432,1313
433,1314
434,1314
435,1315
436,1316
437,1317
438,1317
439,1318
440,1318
441,1319
442,1320
443,1321
444,1322
445,1323
446,1323
447,1323
448,1324
449,1325
450,1325
451,1325
452,1325
453,1326
453,1327
454,1327
455,1327
456,1327
457,1328
458,1329
459,1330
460,1331
461,1331
462,1331
463,1332
464,1333
465,1334
466,1334
467,1335
468,1335
469,1335
469,1336
469,1337
470,1338
471,1339
472,1340
473,1341
474,1342
475,1343
476,1344
477,1345
478,1346
479,1347
480,1347
481,1347
482,1347
483,1348
484,1349
485,1350
486,1350
487,1350
488,1351
489,1352
490,1352
491,1352
492,1353
493,1354
494,1354
495,1354
496,1355
497,1355
498,1356
499,1356
500,1356
501,1357
502,1358
503,1358
504,1358
505,1359
506,1359
507,1359
508,1360
509,1360
510,1361
511,1361
512,1362
513,1362
514,1363
515,1363
516,1364
517,1365
518,1365
519,1365
520,1365
521,1366
522,1366
523,1367
524,1368
525,1369
526,1369
527,1370
528,1370
529,1371
530,1371
531,1372
532,1372
533,1373
534,1373
535,1374
536,1374
537,1375
538,1375
539,1375
540,1376
541,1377
542,1377
543,1377
544,1378
545,1378
546,1379
547,1379
548,1379
549,1380
550,1380
551,1380
552,1380
553,1380
554,1381
555,1381
556,1382
557,1382
558,1382
559,1383
560,1384
561,1384
562,1384
563,1384
564,1384
565,1385
566,1385
567,1385
568,1386
569,1386
570,1387
571,1388
572,1388
573,1389
574,1389
575,1390
576,1390
577,1390
578,1390
579,1391
580,1391
581,1392
582,1393
583,1394
584,1394
585,1394
586,1394
587,1395
588,1396
589,1396
590,1397
591,1398
592,1398
593,1399
594,1400
595,1400
596,1400
597,1400
598,1401
599,1401
600,1401
601,1402
602,1402
603,1402
604,1402
605,1402
606,1402
607,1402
608,1402
609,1402
610,1403
611,1403
612,1403
613,1403
614,1403
615,1403
616,1403
617,1403
618,1404
619,1404
620,1405
621,1405
622,1405
623,1405
623,1406
623,1407
624,1408
625,1409
626,1410
627,1411
628,1411
633,1411
629,1412
633,1412
630,1413
631,1413
632,1413
633,1413
633,1414
633,1415
633,1416
634,1416
635,1416
636,1417
637,1418
638,1419
639,1419
639,1420
639,1421
640,1422
641,1423
642,1424
643,1425
644,1426
645,1427
646,1427
647,1427
647,1428
647,1429
647,1430
648,1431
649,1432
650,1433
651,1434
652,1435
653,1436
654,1437
655,1438
656,1439
657,1440
658,1441
658,1442
657,1443
658,1443
659,1443
660,1444
661,1445
662,1445
663,1445
664,1445
663,1446
663,1447
663,1448
664,1449
665,1450
666,1451
667,1452
668,1453
669,1454
670,1455
671,1455
672,1455
672,1456
672,1457
672,1458
673,1459
674,1460
675,1461
676,1462
677,1463
678,1464
679,1465
680,1465
681,1465
681,1466
681,1467
681,1468
682,1469
683,1470
684,1471
685,1472
686,1473
687,1474
688,1475
688,1476
689,1477
689,1478
690,1479
691,1480
692,1481
692,1482
693,1483
694,1483
695,1484
696,1485
697,1485
697,1486
697,1487
698,1488
699,1489
699,1490
700,1491
701,1491
702,1492
703,1493
703,1494
704,1495
705,1495
706,1496
707,1497
708,1498
709,1499
709,1500
710,1501
711,1502
712,1503
713,1503
713,1504
713,1505
714,1505
715,1506
716,1507
717,1508
718,1509
718,1510
719,1510
720,1510
721,1510
722,1511
723,1512
724,1513
725,1513
726,1513
726,1514
726,1515
727,1516
728,1517
729,1518
730,1519
731,1520
732,1521
733,1522
734,1523
735,1523
736,1524
737,1525
738,1526
739,1527
740,1527
741,1528
742,1528
743,1529
744,1530
745,1530
746,1531
747,1531
748,1531
749,1531
749,1532
749,1533
750,1534
751,1535
751,1536
751,1537
752,1537
753,1537
754,1537
755,1538
756,1539
757,1540
758,1541
759,1542
760,1542
761,1542
762,1542
762,1543
763,1544
764,1545
765,1546
766,1547
767,1548
768,1549
769,1550
770,1551
771,1551
772,1552
773,1553
774,1554
775,1554
776,1554
777,1554
778,1554
778,1555
779,1556
780,1557
781,1558
782,1559
783,1560
784,1561
785,1562
786,1563
787,1563
788,1564
789,1565
789,1566
789,1567
790,1567
791,1567
792,1567
793,1567
794,1568
794,1569
795,1570
796,1571
797,1571
798,1572
799,1573
800,1573
801,1574
802,1575
803,1575
804,1576
805,1577
806,1578
807,1579
808,1579
809,1580
810,1581
811,1582
812,1582
813,1582
813,1583
813,1584
814,1585
815,1585
816,1586
817,1587
818,1587
819,1588
820,1589
821,1589
822,1590
823,1591
824,1591
825,1591
826,1592
827,1592
828,1593
829,1594
830,1595
831,1596
832,1596
833,1597
834,1598
835,1599
836,1600
837,1600
838,1601
839,1601
840,1601
841,1602
842,1603
843,1604
844,1605
845,1605
846,1606
847,1607
848,1607
849,1608
850,1608
851,1608
852,1609
853,1610
854,1611
855,1612
856,1613
857,1614
858,1615
859,1616
860,1617
861,1617
862,1618
863,1619
863,1620
864,1620
865,1620
866,1620
867,1621
868,1621
869,1622
870,1623
871,1624
872,1625
873,1625
874,1625
875,1625
875,1626
876,1627
877,1628
878,1629
879,1630
880,1631
881,1632
882,1632
883,1633
884,1634
885,1634
886,1634
887,1635
888,1635
889,1635
890,1636
891,1637
892,1638
893,1639
894,1640
895,1641
896,1642
897,1642
898,1643
898,1644
898,1645
899,1645
900,1645
901,1645
902,1645
902,1646
902,1647
903,1648
904,1648
905,1649
906,1650
907,1651
908,1652
909,1653
910,1654
911,1654
912,1655
913,1655
